{
  "params": {
    "skipTrim": true,
    "icon": "./app-icon.png",
    "quality": "10",
    "themeColor": "212121",
    "padding": [
      1,
      1
    ],
    "include": [
      "all"
    ]
  },
  "assets": []
}
